begin
  ndims               3
  nvars               5
  size                64 64 64
  iproc               2 2 2
  ghost               3
  n_iter              10000
  time_scheme         rk
  time_scheme_type    44
  hyp_space_scheme    weno5
  hyp_interp_type     components
  dt                  0.02
  screen_op_iter      50
  file_op_iter        250
  input_mode          serial
  ip_file_type        binary
  op_file_format      binary
  op_overwrite        no
  model               numa3d
end
