%!PS-Adobe-3.0 EPSF-3.0
%%Title: /Users/pguhur/rk/img/wrf_CK_sol_1.eps
%%Creator: matplotlib version 1.3.1, http://matplotlib.org/
%%CreationDate: Tue Feb  2 10:10:47 2016
%%Orientation: portrait
%%BoundingBox: -9 207 621 584
%%EndComments
%%BeginProlog
/mpldict 9 dict def
mpldict begin
/m { moveto } bind def
/l { lineto } bind def
/r { rlineto } bind def
/c { curveto } bind def
/cl { closepath } bind def
/box {
m
1 index 0 r
0 exch r
neg 0 r
cl
} bind def
/clipbox {
box
clip
newpath
} bind def
%!PS-Adobe-3.0 Resource-Font
%%Title: Bitstream Vera Sans
%%Copyright: Copyright (c) 2003 by Bitstream, Inc. All Rights Reserved.
%%Creator: Converted from TrueType to type 3 by PPR
25 dict begin
/_d{bind def}bind def
/_m{moveto}_d
/_l{lineto}_d
/_cl{closepath eofill}_d
/_c{curveto}_d
/_sc{7 -1 roll{setcachedevice}{pop pop pop pop pop pop}ifelse}_d
/_e{exec}_d
/FontName /BitstreamVeraSans-Roman def
/PaintType 0 def
/FontMatrix[.001 0 0 .001 0 0]def
/FontBBox[-183 -236 1287 928]def
/FontType 3 def
/Encoding [ /space /plus /period /zero /one /two /three /four /six /seven /eight /C /D /K /N /S /U /a /c /d /e /f /g /h /i /j /l /m /n /o /p /r /s /t /u /w /y ] def
/FontInfo 10 dict dup begin
/FamilyName (Bitstream Vera Sans) def
/FullName (Bitstream Vera Sans) def
/Notice (Copyright (c) 2003 by Bitstream, Inc. All Rights Reserved. Bitstream Vera is a trademark of Bitstream, Inc.) def
/Weight (Roman) def
/Version (Release 1.10) def
/ItalicAngle 0.0 def
/isFixedPitch false def
/UnderlinePosition -213 def
/UnderlineThickness 143 def
end readonly def
/CharStrings 37 dict dup begin
/space{318 0 0 0 0 0 _sc
}_d
/plus{838 0 106 0 732 627 _sc
460 627 _m
460 355 _l
732 355 _l
732 272 _l
460 272 _l
460 0 _l
378 0 _l
378 272 _l
106 272 _l
106 355 _l
378 355 _l
378 627 _l
460 627 _l
_cl}_d
/period{318 0 107 0 210 124 _sc
107 124 _m
210 124 _l
210 0 _l
107 0 _l
107 124 _l
_cl}_d
/zero{636 0 66 -13 570 742 _sc
318 664 _m
267 664 229 639 203 589 _c
177 539 165 464 165 364 _c
165 264 177 189 203 139 _c
229 89 267 64 318 64 _c
369 64 407 89 433 139 _c
458 189 471 264 471 364 _c
471 464 458 539 433 589 _c
407 639 369 664 318 664 _c
318 742 _m
399 742 461 709 505 645 _c
548 580 570 486 570 364 _c
570 241 548 147 505 83 _c
461 19 399 -13 318 -13 _c
236 -13 173 19 130 83 _c
87 147 66 241 66 364 _c
66 486 87 580 130 645 _c
173 709 236 742 318 742 _c
_cl}_d
/one{636 0 110 0 544 729 _sc
124 83 _m
285 83 _l
285 639 _l
110 604 _l
110 694 _l
284 729 _l
383 729 _l
383 83 _l
544 83 _l
544 0 _l
124 0 _l
124 83 _l
_cl}_d
/two{{636 0 73 0 536 742 _sc
192 83 _m
536 83 _l
536 0 _l
73 0 _l
73 83 _l
110 121 161 173 226 239 _c
290 304 331 346 348 365 _c
380 400 402 430 414 455 _c
426 479 433 504 433 528 _c
433 566 419 598 392 622 _c
365 646 330 659 286 659 _c
255 659 222 653 188 643 _c
154 632 117 616 78 594 _c
78 694 _l
118 710 155 722 189 730 _c
223 738 255 742 284 742 _c
}_e{359 742 419 723 464 685 _c
509 647 532 597 532 534 _c
532 504 526 475 515 449 _c
504 422 484 390 454 354 _c
446 344 420 317 376 272 _c
332 227 271 164 192 83 _c
_cl}_e}_d
/three{{636 0 76 -13 556 742 _sc
406 393 _m
453 383 490 362 516 330 _c
542 298 556 258 556 212 _c
556 140 531 84 482 45 _c
432 6 362 -13 271 -13 _c
240 -13 208 -10 176 -4 _c
144 1 110 10 76 22 _c
76 117 _l
103 101 133 89 166 81 _c
198 73 232 69 268 69 _c
330 69 377 81 409 105 _c
441 129 458 165 458 212 _c
458 254 443 288 413 312 _c
383 336 341 349 287 349 _c
}_e{202 349 _l
202 430 _l
291 430 _l
339 430 376 439 402 459 _c
428 478 441 506 441 543 _c
441 580 427 609 401 629 _c
374 649 336 659 287 659 _c
260 659 231 656 200 650 _c
169 644 135 635 98 623 _c
98 711 _l
135 721 170 729 203 734 _c
235 739 266 742 296 742 _c
370 742 429 725 473 691 _c
517 657 539 611 539 553 _c
539 513 527 479 504 451 _c
481 423 448 403 406 393 _c
_cl}_e}_d
/four{636 0 49 0 580 729 _sc
378 643 _m
129 254 _l
378 254 _l
378 643 _l
352 729 _m
476 729 _l
476 254 _l
580 254 _l
580 172 _l
476 172 _l
476 0 _l
378 0 _l
378 172 _l
49 172 _l
49 267 _l
352 729 _l
_cl}_d
/six{{636 0 70 -13 573 742 _sc
330 404 _m
286 404 251 388 225 358 _c
199 328 186 286 186 234 _c
186 181 199 139 225 109 _c
251 79 286 64 330 64 _c
374 64 409 79 435 109 _c
461 139 474 181 474 234 _c
474 286 461 328 435 358 _c
409 388 374 404 330 404 _c
526 713 _m
526 623 _l
501 635 476 644 451 650 _c
425 656 400 659 376 659 _c
310 659 260 637 226 593 _c
}_e{192 549 172 482 168 394 _c
187 422 211 444 240 459 _c
269 474 301 482 336 482 _c
409 482 467 459 509 415 _c
551 371 573 310 573 234 _c
573 159 550 99 506 54 _c
462 9 403 -13 330 -13 _c
246 -13 181 19 137 83 _c
92 147 70 241 70 364 _c
70 479 97 571 152 639 _c
206 707 280 742 372 742 _c
396 742 421 739 447 735 _c
472 730 498 723 526 713 _c
_cl}_e}_d
/seven{636 0 82 0 551 729 _sc
82 729 _m
551 729 _l
551 687 _l
286 0 _l
183 0 _l
432 646 _l
82 646 _l
82 729 _l
_cl}_d
/eight{{636 0 68 -13 568 742 _sc
318 346 _m
271 346 234 333 207 308 _c
180 283 167 249 167 205 _c
167 161 180 126 207 101 _c
234 76 271 64 318 64 _c
364 64 401 76 428 102 _c
455 127 469 161 469 205 _c
469 249 455 283 429 308 _c
402 333 365 346 318 346 _c
219 388 _m
177 398 144 418 120 447 _c
96 476 85 511 85 553 _c
85 611 105 657 147 691 _c
188 725 245 742 318 742 _c
}_e{390 742 447 725 489 691 _c
530 657 551 611 551 553 _c
551 511 539 476 515 447 _c
491 418 459 398 417 388 _c
464 377 501 355 528 323 _c
554 291 568 251 568 205 _c
568 134 546 80 503 43 _c
459 5 398 -13 318 -13 _c
237 -13 175 5 132 43 _c
89 80 68 134 68 205 _c
68 251 81 291 108 323 _c
134 355 171 377 219 388 _c
183 544 _m
183 506 194 476 218 455 _c
}_e{242 434 275 424 318 424 _c
360 424 393 434 417 455 _c
441 476 453 506 453 544 _c
453 582 441 611 417 632 _c
393 653 360 664 318 664 _c
275 664 242 653 218 632 _c
194 611 183 582 183 544 _c
_cl}_e}_d
/C{{698 0 56 -13 644 742 _sc
644 673 _m
644 569 _l
610 599 575 622 537 638 _c
499 653 460 661 418 661 _c
334 661 270 635 226 584 _c
182 533 160 460 160 364 _c
160 268 182 194 226 143 _c
270 92 334 67 418 67 _c
460 67 499 74 537 90 _c
575 105 610 128 644 159 _c
644 56 _l
609 32 572 15 534 4 _c
496 -7 455 -13 412 -13 _c
302 -13 215 20 151 87 _c
}_e{87 154 56 246 56 364 _c
56 481 87 573 151 641 _c
215 708 302 742 412 742 _c
456 742 497 736 535 725 _c
573 713 610 696 644 673 _c
_cl}_e}_d
/D{770 0 98 0 711 729 _sc
197 648 _m
197 81 _l
316 81 _l
416 81 490 103 537 149 _c
583 195 607 267 607 365 _c
607 463 583 534 537 580 _c
490 625 416 648 316 648 _c
197 648 _l
98 729 _m
301 729 _l
442 729 546 699 612 641 _c
678 582 711 490 711 365 _c
711 239 677 147 611 88 _c
545 29 441 0 301 0 _c
98 0 _l
98 729 _l
_cl}_d
/K{656 0 98 0 677 729 _sc
98 729 _m
197 729 _l
197 421 _l
524 729 _l
651 729 _l
289 389 _l
677 0 _l
547 0 _l
197 351 _l
197 0 _l
98 0 _l
98 729 _l
_cl}_d
/N{748 0 98 0 650 729 _sc
98 729 _m
231 729 _l
554 119 _l
554 729 _l
650 729 _l
650 0 _l
517 0 _l
194 610 _l
194 0 _l
98 0 _l
98 729 _l
_cl}_d
/S{{635 0 66 -13 579 742 _sc
535 705 _m
535 609 _l
497 627 462 640 429 649 _c
395 657 363 662 333 662 _c
279 662 237 651 208 631 _c
179 610 165 580 165 542 _c
165 510 174 485 194 469 _c
213 452 250 439 304 429 _c
364 417 _l
437 403 491 378 526 343 _c
561 307 579 260 579 201 _c
579 130 555 77 508 41 _c
460 5 391 -13 300 -13 _c
265 -13 228 -9 189 -2 _c
}_e{150 5 110 16 69 32 _c
69 134 _l
109 111 148 94 186 83 _c
224 71 262 66 300 66 _c
356 66 399 77 430 99 _c
460 121 476 152 476 194 _c
476 230 465 258 443 278 _c
421 298 385 313 335 323 _c
275 335 _l
201 349 148 372 115 404 _c
82 435 66 478 66 534 _c
66 598 88 649 134 686 _c
179 723 242 742 322 742 _c
356 742 390 739 426 733 _c
461 727 497 717 535 705 _c
}_e{_cl}_e}_d
/U{732 0 87 -13 645 729 _sc
87 729 _m
186 729 _l
186 286 _l
186 208 200 151 228 117 _c
256 83 302 66 366 66 _c
429 66 475 83 503 117 _c
531 151 546 208 546 286 _c
546 729 _l
645 729 _l
645 274 _l
645 178 621 107 574 59 _c
527 11 458 -13 366 -13 _c
274 -13 204 11 157 59 _c
110 107 87 178 87 274 _c
87 729 _l
_cl}_d
/a{{613 0 60 -13 522 560 _sc
343 275 _m
270 275 220 266 192 250 _c
164 233 150 205 150 165 _c
150 133 160 107 181 89 _c
202 70 231 61 267 61 _c
317 61 357 78 387 114 _c
417 149 432 196 432 255 _c
432 275 _l
343 275 _l
522 312 _m
522 0 _l
432 0 _l
432 83 _l
411 49 385 25 355 10 _c
325 -5 287 -13 243 -13 _c
187 -13 142 2 109 33 _c
76 64 60 106 60 159 _c
}_e{60 220 80 266 122 298 _c
163 329 224 345 306 345 _c
432 345 _l
432 354 _l
432 395 418 427 391 450 _c
364 472 326 484 277 484 _c
245 484 215 480 185 472 _c
155 464 127 453 100 439 _c
100 522 _l
132 534 164 544 195 550 _c
226 556 256 560 286 560 _c
365 560 424 539 463 498 _c
502 457 522 395 522 312 _c
_cl}_e}_d
/c{{550 0 55 -13 488 560 _sc
488 526 _m
488 442 _l
462 456 437 466 411 473 _c
385 480 360 484 334 484 _c
276 484 230 465 198 428 _c
166 391 150 339 150 273 _c
150 206 166 154 198 117 _c
230 80 276 62 334 62 _c
360 62 385 65 411 72 _c
437 79 462 90 488 104 _c
488 21 _l
462 9 436 0 410 -5 _c
383 -10 354 -13 324 -13 _c
242 -13 176 12 128 64 _c
}_e{79 115 55 185 55 273 _c
55 362 79 432 128 483 _c
177 534 244 560 330 560 _c
358 560 385 557 411 551 _c
437 545 463 537 488 526 _c
_cl}_e}_d
/d{{635 0 55 -13 544 760 _sc
454 464 _m
454 760 _l
544 760 _l
544 0 _l
454 0 _l
454 82 _l
435 49 411 25 382 10 _c
353 -5 319 -13 279 -13 _c
213 -13 159 13 117 65 _c
75 117 55 187 55 273 _c
55 359 75 428 117 481 _c
159 533 213 560 279 560 _c
319 560 353 552 382 536 _c
411 520 435 496 454 464 _c
148 273 _m
148 207 161 155 188 117 _c
215 79 253 61 301 61 _c
}_e{348 61 385 79 413 117 _c
440 155 454 207 454 273 _c
454 339 440 390 413 428 _c
385 466 348 485 301 485 _c
253 485 215 466 188 428 _c
161 390 148 339 148 273 _c
_cl}_e}_d
/e{{615 0 55 -13 562 560 _sc
562 296 _m
562 252 _l
149 252 _l
153 190 171 142 205 110 _c
238 78 284 62 344 62 _c
378 62 412 66 444 74 _c
476 82 509 95 541 113 _c
541 28 _l
509 14 476 3 442 -3 _c
408 -9 373 -13 339 -13 _c
251 -13 182 12 131 62 _c
80 112 55 181 55 268 _c
55 357 79 428 127 481 _c
175 533 241 560 323 560 _c
397 560 455 536 498 489 _c
}_e{540 441 562 377 562 296 _c
472 322 _m
471 371 457 410 431 440 _c
404 469 368 484 324 484 _c
274 484 234 469 204 441 _c
174 413 156 373 152 322 _c
472 322 _l
_cl}_e}_d
/f{352 0 23 0 371 760 _sc
371 760 _m
371 685 _l
285 685 _l
253 685 230 678 218 665 _c
205 652 199 629 199 595 _c
199 547 _l
347 547 _l
347 477 _l
199 477 _l
199 0 _l
109 0 _l
109 477 _l
23 477 _l
23 547 _l
109 547 _l
109 585 _l
109 645 123 690 151 718 _c
179 746 224 760 286 760 _c
371 760 _l
_cl}_d
/g{{635 0 55 -207 544 560 _sc
454 280 _m
454 344 440 395 414 431 _c
387 467 349 485 301 485 _c
253 485 215 467 188 431 _c
161 395 148 344 148 280 _c
148 215 161 165 188 129 _c
215 93 253 75 301 75 _c
349 75 387 93 414 129 _c
440 165 454 215 454 280 _c
544 68 _m
544 -24 523 -93 482 -139 _c
440 -184 377 -207 292 -207 _c
260 -207 231 -204 203 -200 _c
175 -195 147 -188 121 -178 _c
}_e{121 -91 _l
147 -105 173 -115 199 -122 _c
225 -129 251 -133 278 -133 _c
336 -133 380 -117 410 -87 _c
439 -56 454 -10 454 52 _c
454 96 _l
435 64 411 40 382 24 _c
353 8 319 0 279 0 _c
211 0 157 25 116 76 _c
75 127 55 195 55 280 _c
55 364 75 432 116 483 _c
157 534 211 560 279 560 _c
319 560 353 552 382 536 _c
411 520 435 496 454 464 _c
454 547 _l
544 547 _l
}_e{544 68 _l
_cl}_e}_d
/h{634 0 91 0 549 760 _sc
549 330 _m
549 0 _l
459 0 _l
459 327 _l
459 379 448 417 428 443 _c
408 469 378 482 338 482 _c
289 482 251 466 223 435 _c
195 404 181 362 181 309 _c
181 0 _l
91 0 _l
91 760 _l
181 760 _l
181 462 _l
202 494 227 519 257 535 _c
286 551 320 560 358 560 _c
420 560 468 540 500 501 _c
532 462 549 405 549 330 _c
_cl}_d
/i{278 0 94 0 184 760 _sc
94 547 _m
184 547 _l
184 0 _l
94 0 _l
94 547 _l
94 760 _m
184 760 _l
184 646 _l
94 646 _l
94 760 _l
_cl}_d
/j{278 0 -17 -207 184 760 _sc
94 547 _m
184 547 _l
184 -9 _l
184 -78 170 -128 144 -160 _c
117 -191 74 -207 16 -207 _c
-17 -207 _l
-17 -131 _l
6 -131 _l
40 -131 63 -123 75 -107 _c
87 -91 94 -58 94 -9 _c
94 547 _l
94 760 _m
184 760 _l
184 646 _l
94 646 _l
94 760 _l
_cl}_d
/l{278 0 94 0 184 760 _sc
94 760 _m
184 760 _l
184 0 _l
94 0 _l
94 760 _l
_cl}_d
/m{{974 0 91 0 889 560 _sc
520 442 _m
542 482 569 511 600 531 _c
631 550 668 560 711 560 _c
767 560 811 540 842 500 _c
873 460 889 403 889 330 _c
889 0 _l
799 0 _l
799 327 _l
799 379 789 418 771 444 _c
752 469 724 482 686 482 _c
639 482 602 466 575 435 _c
548 404 535 362 535 309 _c
535 0 _l
445 0 _l
445 327 _l
445 379 435 418 417 444 _c
398 469 369 482 331 482 _c
}_e{285 482 248 466 221 435 _c
194 404 181 362 181 309 _c
181 0 _l
91 0 _l
91 547 _l
181 547 _l
181 462 _l
201 495 226 520 255 536 _c
283 552 317 560 357 560 _c
397 560 430 550 458 530 _c
486 510 506 480 520 442 _c
_cl}_e}_d
/n{634 0 91 0 549 560 _sc
549 330 _m
549 0 _l
459 0 _l
459 327 _l
459 379 448 417 428 443 _c
408 469 378 482 338 482 _c
289 482 251 466 223 435 _c
195 404 181 362 181 309 _c
181 0 _l
91 0 _l
91 547 _l
181 547 _l
181 462 _l
202 494 227 519 257 535 _c
286 551 320 560 358 560 _c
420 560 468 540 500 501 _c
532 462 549 405 549 330 _c
_cl}_d
/o{612 0 55 -13 557 560 _sc
306 484 _m
258 484 220 465 192 427 _c
164 389 150 338 150 273 _c
150 207 163 156 191 118 _c
219 80 257 62 306 62 _c
354 62 392 80 420 118 _c
448 156 462 207 462 273 _c
462 337 448 389 420 427 _c
392 465 354 484 306 484 _c
306 560 _m
384 560 445 534 490 484 _c
534 433 557 363 557 273 _c
557 183 534 113 490 63 _c
445 12 384 -13 306 -13 _c
227 -13 165 12 121 63 _c
77 113 55 183 55 273 _c
55 363 77 433 121 484 _c
165 534 227 560 306 560 _c
_cl}_d
/p{{635 0 91 -207 580 560 _sc
181 82 _m
181 -207 _l
91 -207 _l
91 547 _l
181 547 _l
181 464 _l
199 496 223 520 252 536 _c
281 552 316 560 356 560 _c
422 560 476 533 518 481 _c
559 428 580 359 580 273 _c
580 187 559 117 518 65 _c
476 13 422 -13 356 -13 _c
316 -13 281 -5 252 10 _c
223 25 199 49 181 82 _c
487 273 _m
487 339 473 390 446 428 _c
418 466 381 485 334 485 _c
}_e{286 485 249 466 222 428 _c
194 390 181 339 181 273 _c
181 207 194 155 222 117 _c
249 79 286 61 334 61 _c
381 61 418 79 446 117 _c
473 155 487 207 487 273 _c
_cl}_e}_d
/r{411 0 91 0 411 560 _sc
411 463 _m
401 469 390 473 378 476 _c
366 478 353 480 339 480 _c
288 480 249 463 222 430 _c
194 397 181 350 181 288 _c
181 0 _l
91 0 _l
91 547 _l
181 547 _l
181 462 _l
199 495 224 520 254 536 _c
284 552 321 560 365 560 _c
371 560 378 559 386 559 _c
393 558 401 557 411 555 _c
411 463 _l
_cl}_d
/s{{521 0 54 -13 472 560 _sc
443 531 _m
443 446 _l
417 458 391 468 364 475 _c
336 481 308 485 279 485 _c
234 485 200 478 178 464 _c
156 450 145 430 145 403 _c
145 382 153 366 169 354 _c
185 342 217 330 265 320 _c
296 313 _l
360 299 405 279 432 255 _c
458 230 472 195 472 151 _c
472 100 452 60 412 31 _c
372 1 316 -13 246 -13 _c
216 -13 186 -10 154 -5 _c
}_e{122 0 89 8 54 20 _c
54 113 _l
87 95 120 82 152 74 _c
184 65 216 61 248 61 _c
290 61 323 68 346 82 _c
368 96 380 117 380 144 _c
380 168 371 187 355 200 _c
339 213 303 226 247 238 _c
216 245 _l
160 257 119 275 95 299 _c
70 323 58 356 58 399 _c
58 450 76 490 112 518 _c
148 546 200 560 268 560 _c
301 560 332 557 362 552 _c
391 547 418 540 443 531 _c
}_e{_cl}_e}_d
/t{392 0 27 0 368 702 _sc
183 702 _m
183 547 _l
368 547 _l
368 477 _l
183 477 _l
183 180 _l
183 135 189 106 201 94 _c
213 81 238 75 276 75 _c
368 75 _l
368 0 _l
276 0 _l
206 0 158 13 132 39 _c
106 65 93 112 93 180 _c
93 477 _l
27 477 _l
27 547 _l
93 547 _l
93 702 _l
183 702 _l
_cl}_d
/u{634 0 85 -13 543 547 _sc
85 216 _m
85 547 _l
175 547 _l
175 219 _l
175 167 185 129 205 103 _c
225 77 255 64 296 64 _c
344 64 383 79 411 110 _c
439 141 453 183 453 237 _c
453 547 _l
543 547 _l
543 0 _l
453 0 _l
453 84 _l
431 50 405 26 377 10 _c
348 -5 315 -13 277 -13 _c
214 -13 166 6 134 45 _c
101 83 85 140 85 216 _c
_cl}_d
/w{818 0 42 0 776 547 _sc
42 547 _m
132 547 _l
244 120 _l
356 547 _l
462 547 _l
574 120 _l
686 547 _l
776 547 _l
633 0 _l
527 0 _l
409 448 _l
291 0 _l
185 0 _l
42 547 _l
_cl}_d
/y{592 0 30 -207 562 547 _sc
322 -50 _m
296 -114 271 -157 247 -177 _c
223 -197 191 -207 151 -207 _c
79 -207 _l
79 -132 _l
132 -132 _l
156 -132 175 -126 189 -114 _c
203 -102 218 -75 235 -31 _c
251 9 _l
30 547 _l
125 547 _l
296 119 _l
467 547 _l
562 547 _l
322 -50 _l
_cl}_d
end readonly def

/BuildGlyph
 {exch begin
 CharStrings exch
 2 copy known not{pop /.notdef}if
 true 3 1 roll get exec
 end}_d

/BuildChar {
 1 index /Encoding get exch get
 1 index /BuildGlyph get exec
}_d

FontName currentdict end definefont pop
%!PS-Adobe-3.0 Resource-Font
%%Title: cmmi10
%%Copyright: Copyright (C) 1994, Basil K. Malyshev. All Rights Reserved.012BaKoMa Fonts Collection, Level-B.
%%Creator: Converted from TrueType to type 3 by PPR
25 dict begin
/_d{bind def}bind def
/_m{moveto}_d
/_l{lineto}_d
/_cl{closepath eofill}_d
/_c{curveto}_d
/_sc{7 -1 roll{setcachedevice}{pop pop pop pop pop pop}ifelse}_d
/_e{exec}_d
/FontName /Cmmi10 def
/PaintType 0 def
/FontMatrix[.001 0 0 .001 0 0]def
/FontBBox[-34 -250 1048 750]def
/FontType 3 def
/Encoding [ /e /t /i /S /m /o /u /l /T /n ] def
/FontInfo 10 dict dup begin
/FamilyName (cmmi10) def
/FullName (cmmi10) def
/Notice (Copyright (C) 1994, Basil K. Malyshev. All Rights Reserved.012BaKoMa Fonts Collection, Level-B. ) def
/Weight (Regular) def
/Version (1.1/12-Nov-94) def
/ItalicAngle 0.0 def
/isFixedPitch false def
/UnderlinePosition -133 def
/UnderlineThickness 20 def
end readonly def
/CharStrings 10 dict dup begin
/e{{465 0 44 -10 430 442 _sc
201 -10 _m
169 -10 141 -2 117 14 _c
93 30 75 53 63 81 _c
50 109 44 138 44 170 _c
44 217 56 262 80 304 _c
104 346 136 379 177 404 _c
218 429 262 442 309 442 _c
337 442 362 434 384 419 _c
405 404 416 383 416 356 _c
416 317 400 288 370 270 _c
339 251 304 239 266 235 _c
228 231 185 229 139 229 _c
136 229 _l
125 189 120 155 120 127 _c
}_e{120 97 126 71 140 49 _c
154 26 175 15 203 15 _c
243 15 281 24 318 42 _c
354 60 384 86 407 118 _c
409 120 411 121 415 121 _c
418 121 421 119 425 115 _c
428 111 430 108 430 105 _c
430 102 429 100 428 99 _c
404 65 371 38 330 19 _c
288 0 245 -10 201 -10 _c
142 255 _m
180 255 216 256 249 260 _c
282 264 312 273 339 287 _c
365 301 379 324 379 355 _c
}_e{379 367 375 378 368 387 _c
361 396 352 403 342 408 _c
331 413 320 416 308 416 _c
280 416 254 408 232 393 _c
209 377 190 357 176 333 _c
161 308 150 282 142 255 _c
_cl}_e}_d
/t{{361 0 22 -10 330 626 _sc
62 81 _m
62 91 63 100 65 109 _c
137 396 _l
32 396 _l
25 396 22 400 22 409 _c
24 423 29 431 35 431 _c
146 431 _l
186 594 _l
188 602 193 610 201 616 _c
209 622 218 626 228 626 _c
236 626 243 623 249 618 _c
255 613 258 606 258 598 _c
258 596 257 594 257 593 _c
257 592 257 591 257 590 _c
217 431 _l
320 431 _l
326 431 330 426 330 418 _c
}_e{330 416 329 414 328 410 _c
327 406 326 402 324 400 _c
322 397 320 396 317 396 _c
208 396 _l
136 107 _l
131 88 129 72 129 58 _c
129 29 138 15 158 15 _c
187 15 213 28 236 56 _c
258 84 276 114 288 147 _c
290 151 293 153 296 153 _c
308 153 _l
310 153 312 152 314 150 _c
316 148 317 146 317 144 _c
317 142 316 141 316 141 _c
301 101 280 65 252 35 _c
}_e{224 5 192 -10 156 -10 _c
129 -10 107 -1 89 15 _c
71 32 62 54 62 81 _c
_cl}_e}_d
/i{{344 0 27 -10 296 661 _sc
78 72 _m
78 84 80 97 86 111 _c
167 326 _l
175 350 180 370 180 386 _c
180 406 172 416 158 416 _c
132 416 110 402 93 375 _c
75 347 63 317 55 284 _c
53 280 51 278 47 278 _c
35 278 _l
29 278 27 281 27 287 _c
27 290 _l
37 330 54 365 76 396 _c
98 426 126 442 160 442 _c
184 442 204 434 220 418 _c
236 402 245 383 245 359 _c
}_e{245 346 242 333 237 320 _c
156 105 _l
146 83 142 63 142 45 _c
142 25 149 15 165 15 _c
191 15 212 29 230 57 _c
247 85 259 115 267 147 _c
268 151 271 153 275 153 _c
287 153 _l
289 153 291 152 293 150 _c
295 148 296 146 296 144 _c
296 143 295 142 295 141 _c
285 103 269 68 247 37 _c
224 5 196 -10 163 -10 _c
139 -10 119 -2 103 13 _c
86 29 78 48 78 72 _c
}_e{191 606 _m
191 620 196 632 208 644 _c
220 655 233 661 247 661 _c
258 661 267 657 275 650 _c
282 643 286 634 286 624 _c
286 609 280 596 268 585 _c
256 573 243 568 229 568 _c
218 568 209 571 202 579 _c
194 586 191 595 191 606 _c
_cl}_e}_d
/S{{613 0 53 -21 646 705 _sc
61 -21 _m
59 -21 57 -19 55 -17 _c
53 -15 53 -13 53 -11 _c
111 221 _l
112 225 115 227 119 227 _c
131 227 _l
133 227 135 226 137 224 _c
138 222 139 219 139 217 _c
133 194 131 174 131 156 _c
131 107 147 71 180 48 _c
213 24 255 13 306 13 _c
328 13 349 18 370 29 _c
391 39 410 53 426 71 _c
442 88 454 107 464 129 _c
}_e{473 150 478 172 478 194 _c
478 217 471 238 459 256 _c
447 274 430 286 408 292 _c
286 324 _l
253 332 227 350 207 377 _c
187 403 178 433 178 467 _c
178 507 190 545 214 582 _c
238 619 269 649 307 671 _c
345 693 384 705 424 705 _c
454 705 482 699 508 688 _c
533 676 553 659 567 635 _c
624 702 _l
628 704 630 705 631 705 _c
637 705 _l
639 705 641 703 643 701 _c
}_e{645 699 646 697 646 695 _c
588 463 _l
586 458 584 456 580 456 _c
568 456 _l
562 456 559 459 559 467 _c
562 488 564 506 564 522 _c
564 552 558 579 548 602 _c
537 625 521 643 500 655 _c
478 667 452 673 421 673 _c
394 673 367 665 341 650 _c
315 634 293 614 277 589 _c
261 563 253 537 253 510 _c
253 488 259 469 272 453 _c
284 436 301 425 322 419 _c
444 387 _l
}_e{466 381 485 370 501 356 _c
517 341 530 323 539 303 _c
547 283 552 261 552 237 _c
552 205 545 173 532 143 _c
518 112 500 84 476 59 _c
452 33 424 14 394 0 _c
364 -14 333 -21 302 -21 _c
222 -21 165 2 131 48 _c
75 -18 _l
71 -20 68 -21 68 -21 _c
61 -21 _l
_cl}_e}_d
/m{{878 0 27 -10 851 442 _sc
77 17 _m
77 21 77 24 78 26 _c
153 324 _l
157 342 160 359 160 373 _c
160 401 150 416 131 416 _c
110 416 94 403 84 378 _c
74 353 64 322 55 284 _c
55 282 54 280 52 279 _c
50 278 48 278 47 278 _c
35 278 _l
33 278 31 279 29 281 _c
27 283 27 286 27 288 _c
34 317 41 342 48 362 _c
54 382 65 400 79 417 _c
}_e{93 433 110 442 132 442 _c
156 442 178 434 198 418 _c
217 402 227 382 227 358 _c
247 384 270 404 297 419 _c
323 434 352 442 382 442 _c
413 442 440 434 463 418 _c
486 402 498 379 498 349 _c
518 378 542 401 570 417 _c
597 433 627 442 660 442 _c
694 442 722 432 743 414 _c
764 395 775 368 775 334 _c
775 306 768 273 756 235 _c
744 196 729 153 711 105 _c
}_e{701 81 697 61 697 45 _c
697 25 704 15 720 15 _c
746 15 767 29 785 57 _c
802 85 814 115 822 147 _c
824 151 826 153 830 153 _c
842 153 _l
844 153 846 152 848 150 _c
850 148 851 146 851 144 _c
851 143 850 142 850 141 _c
840 103 824 68 802 37 _c
780 5 752 -10 718 -10 _c
694 -10 674 -2 658 13 _c
641 29 633 48 633 72 _c
633 83 635 96 641 111 _c
}_e{659 161 675 205 688 245 _c
700 284 707 319 707 349 _c
707 367 703 383 696 396 _c
688 409 676 416 658 416 _c
622 416 590 404 563 382 _c
536 360 513 330 494 294 _c
492 287 491 282 491 279 _c
427 22 _l
424 12 419 5 411 -1 _c
403 -7 394 -10 385 -10 _c
377 -10 370 -7 364 -3 _c
358 1 355 8 355 17 _c
355 21 355 24 356 26 _c
420 281 _l
426 308 430 331 430 349 _c
}_e{430 367 426 383 418 396 _c
410 409 398 416 380 416 _c
355 416 332 410 312 400 _c
292 389 274 375 259 357 _c
243 339 229 318 217 294 _c
149 22 _l
147 12 142 5 134 -1 _c
126 -7 117 -10 107 -10 _c
99 -10 92 -7 86 -3 _c
80 1 77 8 77 17 _c
_cl}_e}_d
/o{{484 0 40 -10 471 442 _sc
201 -10 _m
169 -10 141 -2 117 12 _c
92 26 73 46 60 72 _c
46 97 40 126 40 158 _c
40 203 52 248 78 292 _c
103 336 136 372 178 400 _c
220 428 264 442 310 442 _c
334 442 356 437 376 429 _c
395 421 412 409 426 394 _c
440 378 451 360 459 340 _c
467 319 471 297 471 273 _c
471 238 463 204 449 170 _c
434 136 414 106 389 78 _c
}_e{363 50 334 29 301 13 _c
268 -2 235 -10 201 -10 _c
203 15 _m
233 15 260 25 284 45 _c
308 65 329 91 345 122 _c
361 152 373 185 381 219 _c
389 253 394 284 394 312 _c
394 340 386 365 372 385 _c
358 405 336 416 308 416 _c
269 416 235 399 206 366 _c
176 332 154 292 139 246 _c
124 200 117 157 117 119 _c
117 90 124 65 139 45 _c
154 25 175 15 203 15 _c
_cl}_e}_d
/u{{572 0 27 -10 546 442 _sc
106 109 _m
106 131 109 153 115 176 _c
121 198 129 224 139 252 _c
149 280 159 305 167 326 _c
175 350 180 370 180 386 _c
180 406 172 416 158 416 _c
132 416 110 402 93 375 _c
75 347 63 317 55 284 _c
53 280 51 278 47 278 _c
35 278 _l
29 278 27 281 27 287 _c
27 290 _l
37 330 54 365 76 396 _c
98 426 126 442 160 442 _c
}_e{184 442 204 434 220 418 _c
236 402 245 383 245 359 _c
245 346 242 333 237 320 _c
233 312 226 294 216 267 _c
206 239 198 217 193 199 _c
187 181 183 163 179 146 _c
175 128 174 111 174 94 _c
174 72 178 53 188 38 _c
197 22 212 15 234 15 _c
276 15 314 41 346 94 _c
346 96 347 99 348 101 _c
348 103 349 106 349 109 _c
421 399 _l
423 407 428 415 436 421 _c
}_e{444 427 453 431 463 431 _c
471 431 478 428 484 423 _c
490 418 493 411 493 403 _c
493 399 492 396 492 395 _c
420 107 _l
415 87 413 70 413 58 _c
413 29 422 15 442 15 _c
463 15 479 28 490 55 _c
500 81 509 112 517 147 _c
518 151 521 153 525 153 _c
537 153 _l
539 153 541 151 543 149 _c
545 147 546 145 546 143 _c
538 114 531 89 525 69 _c
518 49 507 30 493 14 _c
}_e{479 -2 461 -10 440 -10 _c
418 -10 399 -4 383 6 _c
366 17 355 33 349 53 _c
333 33 316 18 296 7 _c
276 -4 254 -10 232 -10 _c
193 -10 162 0 140 21 _c
117 41 106 71 106 109 _c
_cl}_e}_d
/l{{298 0 44 -10 262 694 _sc
44 81 _m
44 83 44 86 44 90 _c
44 94 45 97 46 101 _c
46 105 47 108 47 110 _c
171 605 _l
173 616 175 625 176 632 _c
176 642 154 648 111 648 _c
104 648 101 652 101 661 _c
101 663 102 666 103 670 _c
104 674 105 677 107 679 _c
109 681 111 683 115 683 _c
250 694 _l
258 694 262 689 262 681 _c
118 106 _l
113 95 111 79 111 58 _c
}_e{111 29 120 15 140 15 _c
160 15 176 27 186 53 _c
196 79 206 110 214 147 _c
215 151 218 153 222 153 _c
234 153 _l
236 153 238 151 240 149 _c
242 147 243 145 243 143 _c
235 111 227 85 221 67 _c
215 48 205 30 191 14 _c
177 -2 159 -10 138 -10 _c
111 -10 89 -1 71 15 _c
53 32 44 54 44 81 _c
_cl}_e}_d
/T{{584 0 24 0 706 683 _sc
46 13 _m
46 15 46 18 48 22 _c
49 26 50 29 52 31 _c
54 33 56 35 60 35 _c
117 35 155 36 174 40 _c
192 44 202 54 206 69 _c
343 618 _l
345 626 347 633 347 640 _c
347 645 335 648 312 648 _c
254 648 _l
209 648 174 641 150 627 _c
126 613 108 595 97 573 _c
85 551 71 514 53 463 _c
51 457 47 454 43 454 _c
34 454 _l
}_e{27 454 24 458 24 467 _c
95 674 _l
96 680 99 683 105 683 _c
696 683 _l
702 683 706 678 706 670 _c
673 463 _l
673 461 671 459 669 457 _c
667 455 665 454 663 454 _c
654 454 _l
647 454 644 458 644 467 _c
651 514 655 547 655 567 _c
655 590 650 608 640 620 _c
630 632 617 639 602 643 _c
586 646 566 648 541 648 _c
482 648 _l
464 648 452 646 446 643 _c
}_e{440 639 434 630 430 614 _c
293 65 _l
292 63 292 62 292 61 _c
292 59 291 58 291 56 _c
291 47 296 42 306 40 _c
323 36 360 35 417 35 _c
423 35 427 30 427 22 _c
424 12 422 6 421 4 _c
419 1 416 0 410 0 _c
56 0 _l
49 0 46 4 46 13 _c
_cl}_e}_d
/n{{600 0 27 -10 574 442 _sc
77 17 _m
77 21 77 24 78 26 _c
153 324 _l
157 342 160 359 160 373 _c
160 401 150 416 131 416 _c
110 416 94 403 84 378 _c
74 353 64 322 55 284 _c
55 282 54 280 52 279 _c
50 278 48 278 47 278 _c
35 278 _l
33 278 31 279 29 281 _c
27 283 27 286 27 288 _c
34 317 41 342 48 362 _c
54 382 65 400 79 417 _c
}_e{93 433 110 442 132 442 _c
156 442 178 434 198 418 _c
217 402 227 382 227 358 _c
247 384 270 404 297 419 _c
323 434 352 442 382 442 _c
405 442 425 437 443 429 _c
460 421 473 408 483 392 _c
493 376 498 356 498 334 _c
498 306 491 273 479 235 _c
467 196 452 153 434 105 _c
424 83 420 63 420 45 _c
420 25 427 15 443 15 _c
469 15 490 29 508 57 _c
}_e{525 85 537 115 545 147 _c
546 151 549 153 553 153 _c
565 153 _l
567 153 569 152 571 150 _c
573 148 574 146 574 144 _c
574 143 573 142 573 141 _c
564 103 548 68 526 37 _c
503 5 475 -10 441 -10 _c
417 -10 397 -2 381 13 _c
364 29 356 48 356 72 _c
356 84 358 97 364 111 _c
372 133 381 159 392 189 _c
403 219 412 247 419 275 _c
426 303 430 327 430 349 _c
}_e{430 367 426 383 418 396 _c
410 409 398 416 380 416 _c
355 416 332 410 312 400 _c
292 389 274 375 259 357 _c
243 339 229 318 217 294 _c
149 22 _l
147 12 142 5 134 -1 _c
126 -7 117 -10 107 -10 _c
99 -10 92 -7 86 -3 _c
80 1 77 8 77 17 _c
_cl}_e}_d
end readonly def

/BuildGlyph
 {exch begin
 CharStrings exch
 2 copy known not{pop /.notdef}if
 true 3 1 roll get exec
 end}_d

/BuildChar {
 1 index /Encoding get exch get
 1 index /BuildGlyph get exec
}_d

FontName currentdict end definefont pop
end
%%EndProlog
mpldict begin
-9 207.9 translate
630 376.2 0 0 clipbox
gsave
0 0 m
630 0 l
630 376.2 l
0 376.2 l
cl
1.000 setgray
fill
grestore
gsave
78.75 37.62 m
567 37.62 l
567 338.58 l
78.75 338.58 l
cl
1.000 setgray
fill
grestore
1.000 setlinewidth
1 setlinejoin
0 setlinecap
[6 6] 0 setdash
1.000 0.000 0.000 setrgbcolor
gsave
488.2 301 78.75 37.62 clipbox
159.249 37.62 m
159.249 338.58 l
stroke
grestore
gsave
488.2 301 78.75 37.62 clipbox
329.831 37.62 m
329.831 338.58 l
stroke
grestore
gsave
488.2 301 78.75 37.62 clipbox
446.314 37.62 m
446.314 338.58 l
stroke
grestore
gsave
488.2 301 78.75 37.62 clipbox
477.019 37.62 m
477.019 338.58 l
stroke
grestore
gsave
488.2 301 78.75 37.62 clipbox
568.646 37.62 m
568.646 338.58 l
stroke
grestore
0.000 0.500 0.000 setrgbcolor
gsave
488.2 301 78.75 37.62 clipbox
142.191 37.62 m
142.191 338.58 l
stroke
grestore
gsave
488.2 301 78.75 37.62 clipbox
189.467 37.62 m
189.467 338.58 l
stroke
grestore
gsave
488.2 301 78.75 37.62 clipbox
239.666 37.62 m
239.666 338.58 l
stroke
grestore
gsave
488.2 301 78.75 37.62 clipbox
325.932 37.62 m
325.932 338.58 l
stroke
grestore
gsave
488.2 301 78.75 37.62 clipbox
499.438 37.62 m
499.438 338.58 l
stroke
grestore
gsave
488.2 301 78.75 37.62 clipbox
545.739 37.62 m
545.739 338.58 l
stroke
grestore
gsave
488.2 301 78.75 37.62 clipbox
1028.73 37.62 m
stroke
grestore
2 setlinecap
[] 0 setdash
gsave
488.2 301 78.75 37.62 clipbox
82.2437 333.558 m
92.966 318.815 l
98.8145 310.348 l
108.562 295.919 l
116.36 284.217 l
121.721 276.666 l
126.595 270.131 l
130.494 265.281 l
134.393 260.851 l
139.754 255.153 l
147.065 247.837 l
152.426 242.295 l
158.274 236.28 l
163.148 231.58 l
166.56 228.56 l
169.484 226.263 l
171.921 224.596 l
174.358 223.171 l
176.795 222.007 l
179.232 221.107 l
181.669 220.452 l
184.593 219.916 l
187.517 219.629 l
190.441 219.573 l
193.366 219.727 l
197.265 220.158 l
201.164 220.823 l
206.037 221.907 l
211.886 223.453 l
218.709 225.506 l
228.944 228.613 l
233.818 229.838 l
238.204 230.737 l
242.103 231.315 l
246.977 231.793 l
254.288 232.25 l
259.161 232.671 l
262.573 233.187 l
265.985 233.929 l
268.909 234.767 l
271.833 235.818 l
275.732 237.488 l
283.53 240.837 l
286.455 241.824 l
288.891 242.436 l
291.328 242.829 l
293.765 242.997 l
296.202 242.937 l
298.152 242.656 l
299.614 242.246 l
301.076 241.65 l
302.538 240.858 l
304 239.856 l
305.462 238.633 l
306.924 237.176 l
308.874 234.9 l
310.823 232.258 l
312.285 229.992 l
314.235 226.5 l
316.184 222.457 l
318.134 217.848 l
320.084 212.661 l
322.033 206.882 l
324.47 198.874 l
333.73 167.51 l
337.142 156.968 l
340.066 148.689 l
341.528 145.056 l
342.99 142.012 l
344.452 139.575 l
345.427 138.296 l
346.402 137.3 l
347.377 136.591 l
348.351 136.174 l
349.326 136.056 l
350.301 136.239 l
351.276 136.731 l
352.25 137.534 l
353.225 138.656 l
354.2 140.099 l
355.175 141.866 l
356.637 145.074 l
358.586 150.068 l
360.536 155.664 l
362.973 163.428 l
365.41 171.943 l
368.334 182.996 l
371.745 196.122 l
374.182 204.467 l
375.644 208.719 l
377.107 212.297 l
378.569 215.22 l
380.031 217.505 l
381.006 218.684 l
381.98 219.593 l
382.955 220.238 l
383.93 220.631 l
384.905 220.81 l
385.879 220.797 l
386.854 220.605 l
388.316 220.015 l
389.778 219.106 l
391.728 217.537 l
394.652 214.826 l
399.039 210.615 l
400.501 209.541 l
401.963 208.736 l
403.425 208.205 l
404.887 207.955 l
406.349 207.991 l
407.811 208.325 l
409.273 208.93 l
410.736 209.769 l
412.685 211.185 l
415.122 213.259 l
421.458 218.827 l
423.407 220.19 l
424.869 220.994 l
426.332 221.565 l
427.794 221.864 l
429.256 221.869 l
430.231 221.692 l
431.205 221.356 l
432.18 220.853 l
433.155 220.169 l
434.13 219.296 l
435.592 217.605 l
437.054 215.426 l
438.516 212.725 l
439.978 209.465 l
442.415 203.291 l
445.339 195.235 l
447.776 187.945 l
450.213 180.029 l
452.65 171.393 l
455.087 161.942 l
463.372 128.368 l
466.784 115.964 l
470.683 102.575 l
474.094 91.5512 l
476.044 85.7836 l
477.994 80.601 l
479.943 75.9641 l
481.893 71.8341 l
483.842 68.1724 l
485.792 64.9423 l
487.741 62.1564 l
489.691 59.7882 l
491.64 57.7838 l
493.59 56.1236 l
495.539 54.7944 l
497.489 53.7745 l
499.438 53.0425 l
500.9 52.682 l
502.362 52.5093 l
503.824 52.5151 l
505.774 52.7804 l
507.723 53.3156 l
509.673 54.1225 l
511.135 54.9743 l
512.597 56.048 l
514.059 57.3466 l
515.522 58.888 l
516.984 60.693 l
518.933 63.4995 l
520.883 66.7509 l
522.832 70.4349 l
524.782 74.5402 l
527.219 80.239 l
529.655 86.4808 l
532.58 94.6341 l
535.991 104.917 l
539.89 117.447 l
549.15 147.823 l
552.075 156.194 l
554.512 162.573 l
556.949 168.402 l
560.36 175.887 l
563.772 182.774 l
566.696 188.137 l
567.183 188.991 l
567.183 188.991 l
stroke
grestore
1.000 0.000 0.000 setrgbcolor
gsave
488.2 301 78.75 37.62 clipbox
82.2437 333.558 m
92.966 318.815 l
98.8145 310.348 l
108.562 295.919 l
116.36 284.217 l
121.721 276.666 l
126.595 270.131 l
130.494 265.281 l
134.393 260.851 l
139.754 255.153 l
141.704 253.177 l
142.191 273.693 l
151.939 263.894 l
158.274 257.413 l
163.148 252.748 l
166.56 249.75 l
169.484 247.469 l
171.921 245.812 l
174.358 244.397 l
176.795 243.239 l
179.232 242.343 l
181.669 241.691 l
184.593 241.159 l
187.517 240.874 l
188.979 240.818 l
189.053 377.2 l
240.641 377.2 m
240.641 344.952 l
256.237 318.686 l
259.649 313.568 l
262.573 309.58 l
265.497 305.988 l
268.422 302.808 l
271.346 299.991 l
274.27 297.499 l
277.194 295.279 l
280.119 293.327 l
283.53 291.355 l
286.942 289.663 l
291.816 287.59 l
298.639 284.898 l
303.513 283.195 l
307.899 281.904 l
311.311 281.11 l
314.235 280.628 l
317.159 280.377 l
319.596 280.379 l
322.033 280.613 l
323.983 281.047 l
323.983 377.2 l
323.983 377.2 l
stroke
grestore
0.000 0.000 1.000 setrgbcolor
gsave
488.2 301 78.75 37.62 clipbox
82.2437 333.558 m
92.966 318.815 l
98.8145 310.348 l
108.562 295.919 l
116.36 284.217 l
121.721 276.666 l
126.595 270.131 l
130.494 265.281 l
134.393 260.851 l
139.754 255.153 l
147.065 247.837 l
152.426 242.295 l
158.274 236.28 l
163.148 231.58 l
166.56 228.56 l
169.484 226.263 l
171.921 224.596 l
174.358 223.171 l
176.795 222.007 l
179.232 221.107 l
181.669 220.452 l
184.593 219.916 l
187.517 219.629 l
190.441 219.573 l
193.366 219.727 l
197.265 220.158 l
201.164 220.823 l
206.037 221.907 l
211.886 223.453 l
218.709 225.506 l
228.944 228.613 l
233.818 229.838 l
238.204 230.737 l
242.103 231.315 l
246.977 231.793 l
254.288 232.25 l
259.161 232.671 l
262.573 233.187 l
265.985 233.929 l
268.909 234.767 l
271.833 235.818 l
275.732 237.488 l
283.53 240.837 l
286.455 241.824 l
288.891 242.436 l
291.328 242.829 l
293.765 242.997 l
296.202 242.937 l
298.152 242.656 l
299.614 242.246 l
301.076 241.65 l
302.538 240.858 l
304 239.856 l
305.462 238.633 l
306.924 237.176 l
308.874 234.9 l
310.823 232.258 l
312.285 229.992 l
314.235 226.5 l
316.184 222.457 l
318.134 217.848 l
320.084 212.661 l
322.033 206.882 l
324.47 198.874 l
333.73 167.51 l
337.142 156.968 l
340.066 148.689 l
341.528 145.056 l
342.99 142.012 l
344.452 139.575 l
345.427 138.296 l
346.402 137.3 l
347.377 136.591 l
348.351 136.174 l
349.326 136.056 l
350.301 136.239 l
351.276 136.731 l
352.25 137.534 l
353.225 138.656 l
354.2 140.099 l
355.175 141.866 l
356.637 145.074 l
358.586 150.068 l
360.536 155.664 l
362.973 163.428 l
365.41 171.943 l
368.334 182.996 l
371.745 196.122 l
374.182 204.467 l
375.644 208.719 l
377.107 212.297 l
378.569 215.22 l
380.031 217.505 l
381.006 218.684 l
381.98 219.593 l
382.955 220.238 l
383.93 220.631 l
384.905 220.81 l
385.879 220.797 l
386.854 220.605 l
388.316 220.015 l
389.778 219.106 l
391.728 217.537 l
394.652 214.826 l
399.039 210.615 l
400.501 209.541 l
401.963 208.736 l
403.425 208.205 l
404.887 207.955 l
406.349 207.991 l
407.811 208.325 l
409.273 208.93 l
410.736 209.769 l
412.685 211.185 l
415.122 213.259 l
421.458 218.827 l
423.407 220.19 l
424.869 220.994 l
426.332 221.565 l
427.794 221.864 l
429.256 221.869 l
430.231 221.692 l
431.205 221.356 l
432.18 220.853 l
433.155 220.169 l
434.13 219.296 l
435.592 217.605 l
437.054 215.426 l
438.516 212.725 l
439.978 209.465 l
442.415 203.291 l
445.339 195.235 l
447.776 187.945 l
450.213 180.029 l
452.65 171.393 l
455.087 161.942 l
463.372 128.368 l
466.784 115.964 l
470.683 102.575 l
474.094 91.5512 l
476.044 85.7836 l
477.994 80.601 l
479.943 75.9641 l
481.893 71.8341 l
483.842 68.1724 l
485.792 64.9423 l
487.741 62.1564 l
489.691 59.7882 l
491.64 57.7838 l
493.59 56.1236 l
495.539 54.7944 l
497.489 53.7745 l
499.438 53.0425 l
500.9 52.682 l
502.362 52.5093 l
503.824 52.5151 l
505.774 52.7804 l
507.723 53.3156 l
509.673 54.1225 l
511.135 54.9743 l
512.597 56.048 l
514.059 57.3466 l
515.522 58.888 l
516.984 60.693 l
518.933 63.4995 l
520.883 66.7509 l
522.832 70.4349 l
524.782 74.5402 l
527.219 80.239 l
529.655 86.4808 l
532.58 94.6341 l
535.991 104.917 l
539.89 117.447 l
549.15 147.823 l
552.075 156.194 l
554.512 162.573 l
556.949 168.402 l
560.36 175.887 l
563.772 182.774 l
566.696 188.137 l
567.183 188.991 l
567.183 188.991 l
stroke
grestore
0.500 setlinewidth
0 setlinecap
0.000 setgray
gsave
/o {
gsave
newpath
translate
0.5 setlinewidth
1 setlinejoin
0 setlinecap
0 0 m
0 4 l
gsave
0.000 setgray
fill
grestore
stroke
grestore
} bind def
82.2437 37.62 o
grestore
gsave
/o {
gsave
newpath
translate
0.5 setlinewidth
1 setlinejoin
0 setlinecap
0 0 m
0 -4 l
gsave
0.000 setgray
fill
grestore
stroke
grestore
} bind def
82.2437 338.58 o
grestore
/BitstreamVeraSans-Roman findfont
12.000 scalefont
setfont
gsave
79.220301 24.495000 translate
0.000000 rotate
0.000000 0.000000 m /zero glyphshow
grestore
gsave
/o {
gsave
newpath
translate
0.5 setlinewidth
1 setlinejoin
0 setlinecap
0 0 m
0 4 l
gsave
0.000 setgray
fill
grestore
stroke
grestore
} bind def
179.719 37.62 o
grestore
gsave
/o {
gsave
newpath
translate
0.5 setlinewidth
1 setlinejoin
0 setlinecap
0 0 m
0 -4 l
gsave
0.000 setgray
fill
grestore
stroke
grestore
} bind def
179.719 338.58 o
grestore
gsave
169.094052 24.495000 translate
0.000000 rotate
0.000000 0.000000 m /two glyphshow
7.634766 0.000000 m /zero glyphshow
15.269531 0.000000 m /zero glyphshow
grestore
gsave
/o {
gsave
newpath
translate
0.5 setlinewidth
1 setlinejoin
0 setlinecap
0 0 m
0 4 l
gsave
0.000 setgray
fill
grestore
stroke
grestore
} bind def
277.194 37.62 o
grestore
gsave
/o {
gsave
newpath
translate
0.5 setlinewidth
1 setlinejoin
0 setlinecap
0 0 m
0 -4 l
gsave
0.000 setgray
fill
grestore
stroke
grestore
} bind def
277.194 338.58 o
grestore
gsave
266.428740 24.495000 translate
0.000000 rotate
0.000000 0.000000 m /four glyphshow
7.634766 0.000000 m /zero glyphshow
15.269531 0.000000 m /zero glyphshow
grestore
gsave
/o {
gsave
newpath
translate
0.5 setlinewidth
1 setlinejoin
0 setlinecap
0 0 m
0 4 l
gsave
0.000 setgray
fill
grestore
stroke
grestore
} bind def
374.67 37.62 o
grestore
gsave
/o {
gsave
newpath
translate
0.5 setlinewidth
1 setlinejoin
0 setlinecap
0 0 m
0 -4 l
gsave
0.000 setgray
fill
grestore
stroke
grestore
} bind def
374.67 338.58 o
grestore
gsave
364.029053 24.495000 translate
0.000000 rotate
0.000000 0.000000 m /six glyphshow
7.634766 0.000000 m /zero glyphshow
15.269531 0.000000 m /zero glyphshow
grestore
gsave
/o {
gsave
newpath
translate
0.5 setlinewidth
1 setlinejoin
0 setlinecap
0 0 m
0 4 l
gsave
0.000 setgray
fill
grestore
stroke
grestore
} bind def
472.145 37.62 o
grestore
gsave
/o {
gsave
newpath
translate
0.5 setlinewidth
1 setlinejoin
0 setlinecap
0 0 m
0 -4 l
gsave
0.000 setgray
fill
grestore
stroke
grestore
} bind def
472.145 338.58 o
grestore
gsave
461.488741 24.495000 translate
0.000000 rotate
0.000000 0.000000 m /eight glyphshow
7.634766 0.000000 m /zero glyphshow
15.269531 0.000000 m /zero glyphshow
grestore
gsave
308.875000 7.870000 translate
0.000000 rotate
/Cmmi10 findfont
12.0 scalefont
setfont
0.000000 0.796875 moveto
/T glyphshow

7.007812 0.796875 moveto
/i glyphshow

11.138672 0.796875 moveto
/m glyphshow

21.673828 0.796875 moveto
/e glyphshow


grestore
gsave
/o {
gsave
newpath
translate
0.5 setlinewidth
1 setlinejoin
0 setlinecap
0 0 m
4 0 l
gsave
0.000 setgray
fill
grestore
stroke
grestore
} bind def
78.75 53.3239 o
grestore
gsave
/o {
gsave
newpath
translate
0.5 setlinewidth
1 setlinejoin
0 setlinecap
0 0 m
-4 0 l
gsave
0.000 setgray
fill
grestore
stroke
grestore
} bind def
567 53.3239 o
grestore
gsave
61.140625 50.011401 translate
0.000000 rotate
0.000000 0.000000 m /two glyphshow
7.634766 0.000000 m /zero glyphshow
grestore
gsave
/o {
gsave
newpath
translate
0.5 setlinewidth
1 setlinejoin
0 setlinecap
0 0 m
4 0 l
gsave
0.000 setgray
fill
grestore
stroke
grestore
} bind def
78.75 118.097 o
grestore
gsave
/o {
gsave
newpath
translate
0.5 setlinewidth
1 setlinejoin
0 setlinecap
0 0 m
-4 0 l
gsave
0.000 setgray
fill
grestore
stroke
grestore
} bind def
567 118.097 o
grestore
gsave
60.859375 114.784205 translate
0.000000 rotate
0.000000 0.000000 m /four glyphshow
7.634766 0.000000 m /zero glyphshow
grestore
gsave
/o {
gsave
newpath
translate
0.5 setlinewidth
1 setlinejoin
0 setlinecap
0 0 m
4 0 l
gsave
0.000 setgray
fill
grestore
stroke
grestore
} bind def
78.75 182.87 o
grestore
gsave
/o {
gsave
newpath
translate
0.5 setlinewidth
1 setlinejoin
0 setlinecap
0 0 m
-4 0 l
gsave
0.000 setgray
fill
grestore
stroke
grestore
} bind def
567 182.87 o
grestore
gsave
61.109375 179.557010 translate
0.000000 rotate
0.000000 0.000000 m /six glyphshow
7.634766 0.000000 m /zero glyphshow
grestore
gsave
/o {
gsave
newpath
translate
0.5 setlinewidth
1 setlinejoin
0 setlinecap
0 0 m
4 0 l
gsave
0.000 setgray
fill
grestore
stroke
grestore
} bind def
78.75 247.642 o
grestore
gsave
/o {
gsave
newpath
translate
0.5 setlinewidth
1 setlinejoin
0 setlinecap
0 0 m
-4 0 l
gsave
0.000 setgray
fill
grestore
stroke
grestore
} bind def
567 247.642 o
grestore
gsave
61.078125 244.329814 translate
0.000000 rotate
0.000000 0.000000 m /eight glyphshow
7.634766 0.000000 m /zero glyphshow
grestore
gsave
/o {
gsave
newpath
translate
0.5 setlinewidth
1 setlinejoin
0 setlinecap
0 0 m
4 0 l
gsave
0.000 setgray
fill
grestore
stroke
grestore
} bind def
78.75 312.415 o
grestore
gsave
/o {
gsave
newpath
translate
0.5 setlinewidth
1 setlinejoin
0 setlinecap
0 0 m
-4 0 l
gsave
0.000 setgray
fill
grestore
stroke
grestore
} bind def
567 312.415 o
grestore
gsave
53.937500 309.102619 translate
0.000000 rotate
0.000000 0.000000 m /one glyphshow
7.634766 0.000000 m /zero glyphshow
15.269531 0.000000 m /zero glyphshow
grestore
gsave
46.437500 165.100000 translate
90.000000 rotate
/Cmmi10 findfont
12.0 scalefont
setfont
0.000000 0.531250 moveto
/S glyphshow

7.353516 0.531250 moveto
/o glyphshow

13.160156 0.531250 moveto
/l glyphshow

16.734375 0.531250 moveto
/u glyphshow

23.595703 0.531250 moveto
/t glyphshow

27.925781 0.531250 moveto
/i glyphshow

32.056641 0.531250 moveto
/o glyphshow

37.863281 0.531250 moveto
/n glyphshow


grestore
gsave
78.750000 341.580000 translate
0.000000 rotate
0.000000 0.000000 m /plus glyphshow
10.054688 0.000000 m /six glyphshow
17.689453 0.000000 m /period glyphshow
21.503906 0.000000 m /three glyphshow
29.138672 0.000000 m /seven glyphshow
36.773438 0.000000 m /seven glyphshow
44.408203 0.000000 m /e glyphshow
51.791016 0.000000 m /six glyphshow
grestore
1.000 setlinewidth
gsave
78.75 338.58 m
567 338.58 l
stroke
grestore
gsave
567 37.62 m
567 338.58 l
stroke
grestore
gsave
78.75 37.62 m
567 37.62 l
stroke
grestore
gsave
78.75 37.62 m
78.75 338.58 l
stroke
grestore
/BitstreamVeraSans-Roman findfont
14.400 scalefont
setfont
gsave
144.054688 343.580000 translate
0.000000 rotate
0.000000 0.000000 m /S glyphshow
9.124756 0.000000 m /o glyphshow
17.919617 0.000000 m /l glyphshow
21.913452 0.000000 m /u glyphshow
31.024170 0.000000 m /t glyphshow
36.660461 0.000000 m /i glyphshow
40.654297 0.000000 m /o glyphshow
49.449158 0.000000 m /n glyphshow
58.559875 0.000000 m /space glyphshow
63.129272 0.000000 m /f glyphshow
68.190002 0.000000 m /o glyphshow
76.984863 0.000000 m /r glyphshow
82.894897 0.000000 m /space glyphshow
87.464294 0.000000 m /w glyphshow
99.221191 0.000000 m /r glyphshow
105.131226 0.000000 m /f glyphshow
110.191956 0.000000 m /space glyphshow
114.761353 0.000000 m /C glyphshow
124.798584 0.000000 m /a glyphshow
133.607483 0.000000 m /s glyphshow
141.096802 0.000000 m /h glyphshow
150.207520 0.000000 m /K glyphshow
159.384094 0.000000 m /a glyphshow
168.192993 0.000000 m /r glyphshow
174.103027 0.000000 m /p glyphshow
183.227783 0.000000 m /space glyphshow
187.797180 0.000000 m /N glyphshow
198.550354 0.000000 m /o glyphshow
207.345215 0.000000 m /n glyphshow
216.455933 0.000000 m /S glyphshow
225.580688 0.000000 m /y glyphshow
234.087769 0.000000 m /s glyphshow
241.577087 0.000000 m /t glyphshow
247.213379 0.000000 m /e glyphshow
256.057373 0.000000 m /m glyphshow
270.060364 0.000000 m /a glyphshow
278.869263 0.000000 m /t glyphshow
284.505554 0.000000 m /i glyphshow
288.499390 0.000000 m /c glyphshow
296.402832 0.000000 m /space glyphshow
300.972229 0.000000 m /S glyphshow
310.096985 0.000000 m /i glyphshow
314.090820 0.000000 m /n glyphshow
323.201538 0.000000 m /g glyphshow
332.326294 0.000000 m /l glyphshow
336.320129 0.000000 m /e glyphshow
345.164124 0.000000 m /space glyphshow
349.733521 0.000000 m /one glyphshow
grestore
gsave
316.179 223.326 m
559.8 223.326 l
559.8 331.38 l
316.179 331.38 l
316.179 223.326 l
cl
gsave
1.000 setgray
fill
grestore
stroke
grestore
[6 6] 0 setdash
1.000 0.000 0.000 setrgbcolor
gsave
326.259 320.019 m
346.419 320.019 l
stroke
grestore
0.000 setgray
gsave
362.258750 314.979375 translate
0.000000 rotate
0.000000 0.000000 m /U glyphshow
10.521545 0.000000 m /n glyphshow
19.632263 0.000000 m /c glyphshow
27.535706 0.000000 m /o glyphshow
36.330566 0.000000 m /r glyphshow
41.990601 0.000000 m /r glyphshow
47.525635 0.000000 m /e glyphshow
56.369629 0.000000 m /c glyphshow
64.273071 0.000000 m /t glyphshow
69.909363 0.000000 m /e glyphshow
78.753357 0.000000 m /d glyphshow
87.878113 0.000000 m /space glyphshow
92.447510 0.000000 m /n glyphshow
101.558228 0.000000 m /o glyphshow
110.353088 0.000000 m /n glyphshow
119.463806 0.000000 m /space glyphshow
124.033203 0.000000 m /s glyphshow
131.522522 0.000000 m /y glyphshow
140.029602 0.000000 m /s glyphshow
147.518921 0.000000 m /t glyphshow
153.155212 0.000000 m /period glyphshow
157.724609 0.000000 m /space glyphshow
162.294006 0.000000 m /S glyphshow
171.418762 0.000000 m /D glyphshow
182.487793 0.000000 m /C glyphshow
grestore
0.000 0.500 0.000 setrgbcolor
gsave
326.259 299.273 m
346.419 299.273 l
stroke
grestore
0.000 setgray
gsave
362.258750 294.232500 translate
0.000000 rotate
0.000000 0.000000 m /C glyphshow
10.037231 0.000000 m /o glyphshow
18.832092 0.000000 m /r glyphshow
24.492126 0.000000 m /r glyphshow
30.027161 0.000000 m /e glyphshow
38.871155 0.000000 m /c glyphshow
46.774597 0.000000 m /t glyphshow
52.410889 0.000000 m /e glyphshow
61.254883 0.000000 m /d glyphshow
70.379639 0.000000 m /space glyphshow
74.949036 0.000000 m /n glyphshow
84.059753 0.000000 m /o glyphshow
92.854614 0.000000 m /n glyphshow
101.965332 0.000000 m /space glyphshow
106.534729 0.000000 m /s glyphshow
114.024048 0.000000 m /y glyphshow
122.531128 0.000000 m /s glyphshow
130.020447 0.000000 m /t glyphshow
135.656738 0.000000 m /period glyphshow
140.226135 0.000000 m /space glyphshow
144.795532 0.000000 m /S glyphshow
153.920288 0.000000 m /D glyphshow
164.989319 0.000000 m /C glyphshow
grestore
2 setlinecap
[] 0 setdash
0.000 0.500 0.000 setrgbcolor
gsave
326.259 278.526 m
346.419 278.526 l
stroke
grestore
0.000 setgray
gsave
362.258750 273.485625 translate
0.000000 rotate
0.000000 0.000000 m /N glyphshow
10.753174 0.000000 m /o glyphshow
19.548035 0.000000 m /space glyphshow
24.117432 0.000000 m /i glyphshow
28.111267 0.000000 m /n glyphshow
37.221985 0.000000 m /j glyphshow
41.215820 0.000000 m /e glyphshow
50.059814 0.000000 m /c glyphshow
57.963257 0.000000 m /t glyphshow
63.599548 0.000000 m /e glyphshow
72.443542 0.000000 m /d glyphshow
81.568298 0.000000 m /space glyphshow
86.137695 0.000000 m /e glyphshow
94.981689 0.000000 m /r glyphshow
100.641724 0.000000 m /r glyphshow
106.176758 0.000000 m /o glyphshow
114.971619 0.000000 m /r glyphshow
grestore
1.000 0.000 0.000 setrgbcolor
gsave
326.259 257.779 m
346.419 257.779 l
stroke
grestore
0.000 setgray
gsave
362.258750 252.738750 translate
0.000000 rotate
0.000000 0.000000 m /N glyphshow
10.753174 0.000000 m /o glyphshow
19.548035 0.000000 m /space glyphshow
24.117432 0.000000 m /c glyphshow
32.020874 0.000000 m /o glyphshow
40.815735 0.000000 m /r glyphshow
46.475769 0.000000 m /r glyphshow
52.010803 0.000000 m /e glyphshow
60.854797 0.000000 m /c glyphshow
68.758240 0.000000 m /t glyphshow
74.394531 0.000000 m /i glyphshow
78.388367 0.000000 m /o glyphshow
87.183228 0.000000 m /n glyphshow
grestore
0.000 0.000 1.000 setrgbcolor
gsave
326.259 237.032 m
346.419 237.032 l
stroke
grestore
0.000 setgray
gsave
362.258750 231.991875 translate
0.000000 rotate
0.000000 0.000000 m /C glyphshow
10.037231 0.000000 m /o glyphshow
18.832092 0.000000 m /r glyphshow
24.492126 0.000000 m /r glyphshow
30.027161 0.000000 m /e glyphshow
38.871155 0.000000 m /c glyphshow
46.774597 0.000000 m /t glyphshow
52.410889 0.000000 m /e glyphshow
61.254883 0.000000 m /d glyphshow
70.379639 0.000000 m /space glyphshow
74.949036 0.000000 m /s glyphshow
82.438354 0.000000 m /o glyphshow
91.233215 0.000000 m /l glyphshow
95.227051 0.000000 m /u glyphshow
104.337769 0.000000 m /t glyphshow
109.974060 0.000000 m /i glyphshow
113.967896 0.000000 m /o glyphshow
122.762756 0.000000 m /n glyphshow
grestore

end
showpage
